Create a complete and expanded data frame for tabulating adverse events — .complete_ae_data • gtreg
…
missing_text
String that will be shown for missing levels of by=,
Default is "Unknown"

    Examples

df_adverse_events %>%
  .complete_ae_data(
    id = "patient_id",
    ae = "adverse_event",
    soc = "system_organ_class",
    by = "grade",
    strata = "trt"
  )
#> # A tibble: 127 × 7
#>    id    strata soc                                  ae     by    ..soc.. ..ae..
#>    <chr> <chr>  <chr>                                <chr>  <fct> <lgl>   <lgl> 
#>  1 ID 1  Drug A Blood and lymphatic system disorders Anaem… 1     FALSE   FALSE 
#>  2 ID 1  Drug A Blood and lymphatic system disorders Anaem… 2     FALSE   FALSE 
#>  3 ID 1  Drug A Blood and lymphatic system disorders Anaem… 3     FALSE   TRUE  
#>  4 ID 1  Drug A Blood and lymphatic system disorders Incre… 3     TRUE    TRUE  
#>  5 ID 1  Drug A Blood and lymphatic system disorders Iron … NOT … FALSE   TRUE  
#>  6 ID 1  Drug A Blood and lymphatic system disorders Throm… NOT … FALSE   TRUE  
#>  7 ID 1  Drug A Gastrointestinal disorders           Diffi… 4     FALSE   TRUE  
#>  8 ID 1  Drug A Gastrointestinal disorders           Intes… NOT … FALSE   TRUE  
#>  9 ID 1  Drug A Gastrointestinal disorders           Myoch… 4     TRUE    TRUE  
#> 10 ID 1  Drug A Gastrointestinal disorders           Non-e… NOT … FALSE   TRUE  
#> # … with 117 more rows
…
