…
a tibble

## Examples

``` r
df_adverse_events %>%
  .complete_ae_data(
    id = "patient_id",
    ae = "adverse_event",
    soc = "system_organ_class",
    by = "grade",
    strata = "trt"
  )
#> # A tibble: 126 × 7
#>    id    strata soc                                  ae     by    ..soc.. ..ae..
#>    <chr> <chr>  <fct>                                <chr>  <fct> <lgl>   <lgl> 
#>  1 ID 1  Drug B Blood and lymphatic system disorders Anaem… 4     FALSE   TRUE  
#>  2 ID 1  Drug B Blood and lymphatic system disorders Incre… 4     FALSE   FALSE 
#>  3 ID 1  Drug B Blood and lymphatic system disorders Incre… 5     TRUE    TRUE  
#>  4 ID 1  Drug B Blood and lymphatic system disorders Iron … NOT … FALSE   TRUE  
#>  5 ID 1  Drug B Blood and lymphatic system disorders Throm… 1     FALSE   FALSE 
#>  6 ID 1  Drug B Blood and lymphatic system disorders Throm… 3     FALSE   TRUE  
#>  7 ID 1  Drug B Gastrointestinal disorders           Diffi… NOT … FALSE   TRUE  
#>  8 ID 1  Drug B Gastrointestinal disorders           Intes… 1     FALSE   FALSE 
#>  9 ID 1  Drug B Gastrointestinal disorders           Intes… 2     FALSE   TRUE  
#> 10 ID 1  Drug B Gastrointestinal disorders           Myoch… 3     FALSE   FALSE 
#> # ℹ 116 more rows
```
